…
Join two datasets and reorder

``` r
zip_df_unique = zip_df %>% 
  distinct(zip_code, .keep_all = TRUE)

tidy_df = left_join(zori_df,zip_df_unique, by = "zip_code") %>% distinct() %>%  
  select(region_id, zip_code,state,city,borough,neighborhood,date,zori,everything()) %>% 
  arrange(zip_code)

tidy_df
```

    ## # A tibble: 17,284 × 15
    ##    region_id zip_code state city     borough   neighborhood     date        zori
    ##        <dbl>    <dbl> <chr> <chr>    <chr>     <chr>            <date>     <dbl>
    ##  1     61615    10001 NY    New York Manhattan Chelsea and Cli… 2015-01-31 3855.
    ##  2     61615    10001 NY    New York Manhattan Chelsea and Cli… 2015-02-28 3892.
    ##  3     61615    10001 NY    New York Manhattan Chelsea and Cli… 2015-03-31 3898.
    ##  4     61615    10001 NY    New York Manhattan Chelsea and Cli… 2015-04-30 3970.
    ##  5     61615    10001 NY    New York Manhattan Chelsea and Cli… 2015-05-31 4033.
    ##  6     61615    10001 NY    New York Manhattan Chelsea and Cli… 2015-06-30 4071.
    ##  7     61615    10001 NY    New York Manhattan Chelsea and Cli… 2015-07-31 4067.
    ##  8     61615    10001 NY    New York Manhattan Chelsea and Cli… 2015-08-31 4070.
    ##  9     61615    10001 NY    New York Manhattan Chelsea and Cli… 2015-09-30 4040.
    ## 10     61615    10001 NY    New York Manhattan Chelsea and Cli… 2015-10-31 4023.
    ## # ℹ 17,274 more rows
    ## # ℹ 7 more variables: size_rank <dbl>, region_type <chr>, metro <chr>,
    ## #   state_fips <dbl>, county_code <chr>, county_fips <dbl>, file_date <date>
…
